{
  "urn" : "local:stefano.balbi:aries.heco:mosaicos_rep_Dissolve_Multipart",
  "version" : "0.0.1",
  "adapterType" : "vector",
  "localPath" : "aries.heco/resources/mosaicos_rep_Dissolve_Multipart.v0.0.1",
  "geometry" : "s1(1){bbox=[-79.19111861654395 -67.40980314749143 -4.0652353265939 11.806323608815624],proj=EPSG:4326}",
  "projectName" : "aries.heco",
  "localName" : "mosaicos_rep_Dissolve_Multipart.shp",
  "type" : "OBJECT",
  "resourceTimestamp" : 1631025077988,
  "metadata" : {
    "im:keywords" : "features,mosaicos_rep_Dissolve_Multipart",
    "dc:comment" : "",
    "im:notes" : "",
    "dc:title" : "mosaicos_rep_Dissolve_Multipart",
    "dc:url" : "",
    "dc:creator" : "",
    "im:thematic-area" : "",
    "dc:originator" : "",
    "im:geographic-area" : "",
    "dc:source" : ""
  },
  "parameters" : {
    "computeUnion" : "false",
    "computeHull" : "false",
    "sanitize" : "true"
  },
  "localPaths" : [ "aries.heco/resources/mosaicos_rep_Dissolve_Multipart.v0.0.1/mosaicos_rep_Dissolve_Multipart.shp", "aries.heco/resources/mosaicos_rep_Dissolve_Multipart.v0.0.1/mosaicos_rep_Dissolve_Multipart.prj", "aries.heco/resources/mosaicos_rep_Dissolve_Multipart.v0.0.1/mosaicos_rep_Dissolve_Multipart.dbf", "aries.heco/resources/mosaicos_rep_Dissolve_Multipart.v0.0.1/mosaicos_rep_Dissolve_Multipart.shp.xml", "aries.heco/resources/mosaicos_rep_Dissolve_Multipart.v0.0.1/mosaicos_rep_Dissolve_Multipart.sbx", "aries.heco/resources/mosaicos_rep_Dissolve_Multipart.v0.0.1/mosaicos_rep_Dissolve_Multipart.shx" ],
  "history" : [ ],
  "notifications" : [ ],
  "attributes" : {
    "name" : "Id",
    "type" : "NUMBER",
    "key" : false,
    "optional" : true,
    "exampleValue" : null,
    "index" : 0
  },
  "spatialExtent" : {
    "east" : -67.40980314749143,
    "west" : -79.19111861654395,
    "north" : 11.806323608815624,
    "south" : -4.0652353265939,
    "gridResolution" : null,
    "gridUnit" : null
  },
  "dependencies" : null,
  "outputs" : null,
  "categorizables" : [ ],
  "exportFormats" : {
    "shp" : "ESRI shapefile"
  }
}