{
  "urn" : "local:rubencc:aries.heco:im-data-global-conservation.gap_selection_index_4326_colombia_2020",
  "version" : "0.0.1",
  "adapterType" : "wcs",
  "localPath" : "aries.heco/resources/im-data-global-conservation.gap_selection_index_4326_colombia_2020",
  "geometry" : "S2(1392,1857){bbox=[-79.169705834 -66.632705834 -4.280906448000001 12.515413552],proj=EPSG:4326}",
  "projectName" : "aries.heco",
  "localName" : "im-data-global-conservation.gap_selection_index_4326_colombia_2020",
  "type" : "NUMBER",
  "resourceTimestamp" : 1646727415279,
  "metadata" : {
    "im:keywords" : "biodiversity gap, Colombia",
    "dc:comment" : "This resource identifies the areas in the country with missing information and therefore the sites where additional sampling will improve biodiversity knowledge. This approach follows García Márquez et al., 2012 to identify the spatial coverage of biological information in databases, the environmental representativeness of these records as well as the complementarity of species occurrences.\r\n\r\nThe index is calculated using the species records present in data portals, as well as the information that the Humboldt Institute has compiled in recent years. To calculate it, three dimensions must be estimated: i) a quantification of the biological records per square kilometre, ii) the environmental representativeness of each occurrence following the methodology proposed by Aguiar et al., 2020 and iii) the identification of the complementarity of species with records per square kilometre based on non-parametric first-order Jackknife estimates. The routines used for the generation of this resource are freely available and can be consulted at the following link https://github.com/PEM-Humboldt/gsi_analysis.\r\n\r\nThe data has the EPSG code 4326.",
    "im:notes" : "",
    "dc:title" : "Continental Biodiversity Gap Analysis for Colombia 2020",
    "dc:url" : "http://geonetwork.humboldt.org.co/geonetwork/srv/spa/catalog.search#/metadata/f21ec6a3-d8ac-4d1b-aacf-c4030f60a924",
    "dc:creator" : "Instituto de Investigación de Recursos Biológicos Alexander von Humboldt",
    "im:thematic-area" : "Conservation",
    "dc:originator" : "Instituto de Investigación de Recursos Biológicos Alexander von Humboldt",
    "im:geographic-area" : "Global",
    "dc:source" : "Cruz-Rodríguez CA. & Noguera-Urbano E.2021. Análisis de Vacíos en Biodiversidad Continental para Colombia, escala 1:100.000, año 2020. 2021. Instituto de Investigación de Recursos Biológicos Alexander von Humboldt. Bogotá, D. C., Colombia"
  },
  "parameters" : {
    "wcsIdentifier" : "im-data-global-conservation__gap_selection_index_4326_colombia_2020",
    "transform" : "",
    "serviceUrl" : "https://integratedmodelling.org/geoserver/ows",
    "nodata" : "-3.4E38",
    "wcsVersion" : "2.0.1"
  },
  "localPaths" : [ ],
  "history" : [ ],
  "notifications" : [ ],
  "attributes" : [ ],
  "spatialExtent" : {
    "east" : -66.632705834,
    "west" : -79.169705834,
    "north" : 12.515413552,
    "south" : -4.280906448000001,
    "gridResolution" : null,
    "gridUnit" : null
  },
  "dependencies" : null,
  "outputs" : null,
  "categorizables" : [ ],
  "codelists" : [ ],
  "availability" : null,
  "exportFormats" : { }
}