{
  "urn" : "local:stefano.balbi:aries.heco:leticia_project:colombia_leticia_community_dimension_300m",
  "version" : "0.0.1",
  "adapterType" : "wcs",
  "localPath" : "aries.heco/resources/colombia_leticia_community_dimension_300m.v0.0.1",
  "geometry" : "S2(4457,6151){bbox=[-79.01097107 -66.87033081 -4.228400000000001 12.45847225],proj=EPSG:4326}",
  "projectName" : "aries.heco",
  "localName" : "colombia_leticia_community_dimension_300m",
  "type" : "NUMBER",
  "resourceTimestamp" : 1669108896708,
  "metadata" : { },
  "parameters" : {
    "wcsIdentifier" : "leticia_project__colombia_leticia_community_dimension_300m",
    "transform" : "",
    "serviceUrl" : "https://integratedmodelling.org/aux-geoserver/ows",
    "band" : "0",
    "wcsVersion" : "2.0.1"
  },
  "localPaths" : [ ],
  "history" : [ ],
  "notifications" : [ ],
  "attributes" : [ ],
  "spatialExtent" : {
    "east" : -66.87033081,
    "west" : -79.01097107,
    "north" : 12.45847225,
    "south" : -4.228400000000001,
    "gridResolution" : null,
    "gridUnit" : null
  },
  "dependencies" : null,
  "outputs" : null,
  "categorizables" : [ ],
  "codelists" : [ ],
  "availability" : null,
  "exportFormats" : { }
}