{
  "urn" : "local:rubencc:aries.heco:im-data-global-conservation.ideam_forest_change_coverage_colombia_2017_2018_v9",
  "version" : "0.0.1",
  "adapterType" : "wcs",
  "localPath" : "aries.heco/resources/im-data-global-conservation.ideam_forest_change_coverage_colombia_2017_2018_v9",
  "geometry" : "τ1{tend=1530403200000,tstart=1498867200000,ttype=logical}S2(45204,61617){bbox=[-79.22435718755668 -66.47676395364208 -4.280536264795782 12.579254650144899],proj=EPSG:4326}",
  "projectName" : "aries.heco",
  "localName" : "im-data-global-conservation.ideam_forest_change_coverage_colombia_2017_2018_v9",
  "type" : "NUMBER",
  "resourceTimestamp" : 1647028799144,
  "metadata" : {
    "im:keywords" : "Columbia, forest change",
    "dc:comment" : "Periodic monitoring of the change in the area covered by natural forest allows quantifying the difference or net balance between the area of ​​regenerated forest (gain) and the area of ​​deforested forest (loss) that occur in an analyzed period of time. Likewise, the areas that remain unchanged in a period of time analyzed are identified, either as stable forest areas or as non-stable forest areas. This continuous monitoring provides information for decision-making and control actions in the areas of greatest deforestation in Colombia. Natural forest area change data is generated from semi-automated digital processing of medium-resolution remote sensing images. This monitoring has been carried out annually at the national level since 2013 and additionally, there is historical information for the periods 1990-2000, 2000-2005, 2005-2010 and 2010-2012. The results obtained are presented at the national and departmental levels and in the jurisdiction of the regional autonomous corporations. For the processing and reporting of changes in forest cover, the technical guidelines defined in the Digital Image Processing Protocol for the quantification of deforestation in Colombia Version 2.0 (Galindo et al., IDEAM 2014) are followed, in which identification of deforestation or regeneration is done through direct detection of changes. In this way, the satellite images of the two analyzed dates are simultaneously processed and compared, and variations in the spectral response that may correspond to a loss or gain of forest cover are identified. This allows direct comparison of the images and not the forest area maps generated independently for each date. Deforestation Rate The annual deforestation rate is the variation of the area covered by forest, between the initial year and the final year of the analysis period. The SMByC has generated this indicator on an annual basis since 2013 and additionally has historical information for the periods 1990-2000, 2000-2005, 2005-2010 and 2010-2012. The results obtained are presented at the national and departmental levels and in the jurisdiction of the regional autonomous corporations.",
    "im:notes" : "1. Temporal boundaries of the time series data are annotated as starting from 1st July of the year and ending till 30th June the next year.\r\n2. Values are classified into: 1-Stable forest, 2-Deforestation, 3-No information, 4-Regeneration, 5-Not stable forest. ",
    "dc:title" : "Change in area covered by natural forest from year 2017 to 2018",
    "dc:url" : "http://www.siac.gov.co/catalogo-de-mapas",
    "dc:creator" : "IDEAM",
    "im:thematic-area" : "Conservation",
    "dc:originator" : "IDEAM",
    "im:geographic-area" : "Global",
    "dc:source" : "Protocolo de procesamiento digital de imágenes para la cuantificación de la deforestación en Colombia Versión 2.0 (Galindo et al., IDEAM 2014)"
  },
  "parameters" : {
    "wcsIdentifier" : "im-data-global-conservation__ideam_forest_change_coverage_colombia_2017_2018_v9",
    "transform" : "",
    "serviceUrl" : "https://integratedmodelling.org/geoserver/ows",
    "nodata" : "0.0",
    "wcsVersion" : "2.0.1"
  },
  "localPaths" : [ ],
  "history" : [ ],
  "notifications" : [ ],
  "attributes" : [ ],
  "spatialExtent" : {
    "east" : -66.47676395364208,
    "west" : -79.22435718755668,
    "north" : 12.579254650144899,
    "south" : -4.280536264795782,
    "gridResolution" : null,
    "gridUnit" : null
  },
  "dependencies" : null,
  "outputs" : null,
  "categorizables" : [ ],
  "codelists" : [ ],
  "availability" : null,
  "exportFormats" : { }
}